Lógica Reconfigurável/DE1-SOC/diagrama_bloco/simulation/qsim/diagrama_bloco.msim.vcd
$comment
	File created using the following command:
		vcd file diagrama_bloco.msim.vcd -direction
$end
$date
	Wed Mar 15 15:41:40 2023
$end
$version
	ModelSim Version 10.5b
$end
$timescale
	1ps
$end

$scope module diagrama_bloco_vlg_vec_tst $end
$var reg 3 ! SW [2:0] $end
$var wire 1 " LEDR [2] $end
$var wire 1 # LEDR [1] $end
$var wire 1 $ LEDR [0] $end

$scope module i1 $end
$var wire 1 % gnd $end
$var wire 1 & vcc $end
$var wire 1 ' unknown $end
$var tri1 1 ( devclrn $end
$var tri1 1 ) devpor $end
$var tri1 1 * devoe $end
$var wire 1 + ~QUARTUS_CREATED_GND~I_combout $end
$var wire 1 , SW[0]~input_o $end
$var wire 1 - SW[1]~input_o $end
$var wire 1 . inst2~combout $end
$var wire 1 / SW[2]~input_o $end
$var wire 1 0 inst1~combout $end
$var wire 1 1 inst3~combout $end
$upscope $end
$upscope $end
$enddefinitions $end
#0
$dumpvars
b0 !
0$
0#
0"
0%
1&
x'
1(
1)
1*
0+
0,
0-
0.
0/
00
01
$end
#50000
b1 !
1,
10
1.
1"
1#
#100000
b11 !
b10 !
0,
1-
#150000
b110 !
b111 !
1,
1/
11
00
0.
0"
0#
1$
#200000
b101 !
b100 !
0,
0-
#250000
b101 !
1,
1.
1"
#300000
b1 !
b11 !
b10 !
0,
1-
0/
01
10
1#
0$
#350000
b11 !
1,
11
00
0.
0"
0#
1$
#400000
b1 !
b0 !
0,
0-
01
0$
#450000
b100 !
b101 !
1,
1/
11
1.
1"
1$
#500000
b111 !
b110 !
0,
1-
#550000
b111 !
1,
0.
0"
#600000
b11 !
b1 !
b0 !
0,
0-
0/
01
0$
#650000
b1 !
1,
10
1.
1"
1#
#700000
b11 !
b10 !
0,
1-
#750000
b110 !
b111 !
1,
1/
11
00
0.
0"
0#
1$
#800000
b101 !
b100 !
0,
0-
#850000
b101 !
1,
1.
1"
#900000
b1 !
b11 !
b10 !
0,
1-
0/
01
10
1#
0$
#950000
b11 !
1,
11
00
0.
0"
0#
1$
