Lógica Reconfigurável/exercicio_vhdl/simulation/qsim/exercicios_vhdl.msim.vcd
$comment
	File created using the following command:
		vcd file exercicios_vhdl.msim.vcd -direction
$end
$date
	Wed Mar 08 15:47:06 2023
$end
$version
	ModelSim Version 10.5b
$end
$timescale
	1ps
$end

$scope module exercicio_4_vhd_vec_tst $end
$var wire 1 ! A0 $end
$var wire 1 " A1 $end
$var wire 1 # D0 $end
$var wire 1 $ D1 $end
$var wire 1 % D2 $end
$var wire 1 & D3 $end

$scope module i1 $end
$var wire 1 ' gnd $end
$var wire 1 ( vcc $end
$var wire 1 ) unknown $end
$var wire 1 * devoe $end
$var wire 1 + devclrn $end
$var wire 1 , devpor $end
$var wire 1 - ww_devoe $end
$var wire 1 . ww_devclrn $end
$var wire 1 / ww_devpor $end
$var wire 1 0 ww_A0 $end
$var wire 1 1 ww_A1 $end
$var wire 1 2 ww_D0 $end
$var wire 1 3 ww_D1 $end
$var wire 1 4 ww_D2 $end
$var wire 1 5 ww_D3 $end
$var wire 1 6 \D0~output_o\ $end
$var wire 1 7 \D1~output_o\ $end
$var wire 1 8 \D2~output_o\ $end
$var wire 1 9 \D3~output_o\ $end
$var wire 1 : \A0~input_o\ $end
$var wire 1 ; \A1~input_o\ $end
$var wire 1 < \D0~0_combout\ $end
$var wire 1 = \D2~0_combout\ $end
$var wire 1 > \D2~1_combout\ $end
$var wire 1 ? \D2~2_combout\ $end
$var wire 1 @ \ALT_INV_D0~0_combout\ $end
$upscope $end
$upscope $end
$enddefinitions $end
#0
$dumpvars
0!
0"
1#
0$
0%
0&
0'
1(
x)
1*
1+
1,
1-
1.
1/
00
01
12
03
04
05
16
07
08
09
0:
0;
0<
0=
0>
0?
1@
$end
#50000
1!
10
1:
1<
1=
0@
17
06
13
02
1$
0#
#100000
0!
1"
00
11
1;
0:
0=
1>
18
07
14
03
1%
0$
#150000
1!
10
1:
0>
1?
19
08
15
04
1&
0%
#200000
0!
0"
00
01
0;
0:
0<
0?
1@
09
16
05
12
0&
1#
#250000
1!
10
1:
1<
1=
0@
17
06
13
02
1$
0#
#300000
0!
1"
00
11
1;
0:
0=
1>
18
07
14
03
1%
0$
#350000
1!
10
1:
0>
1?
19
08
15
04
1&
0%
#400000
0!
0"
00
01
0;
0:
0<
0?
1@
09
16
05
12
0&
1#
#450000
1!
10
1:
1<
1=
0@
17
06
13
02
1$
0#
#500000
0!
1"
00
11
1;
0:
0=
1>
18
07
14
03
1%
0$
#550000
1!
10
1:
0>
1?
19
08
15
04
1&
0%
#600000
0!
0"
00
01
0;
0:
0<
0?
1@
09
16
05
12
0&
1#
#650000
1!
10
1:
1<
1=
0@
17
06
13
02
1$
0#
#700000
0!
1"
00
11
1;
0:
0=
1>
18
07
14
03
1%
0$
#750000
1!
10
1:
0>
1?
19
08
15
04
1&
0%
#800000
0!
0"
00
01
0;
0:
0<
0?
1@
09
16
05
12
0&
1#
#850000
1!
10
1:
1<
1=
0@
17
06
13
02
1$
0#
#900000
0!
1"
00
11
1;
0:
0=
1>
18
07
14
03
1%
0$
#950000
1!
10
1:
0>
1?
19
08
15
04
1&
0%
